3 Geographical Information System (GIS) data – SM-2302 Special Lectures
…
The soil_physico and soil_texture data sets contain the same columns, so we might as well merge them together. We will use the dplyr::left_join() function.

# Actually I just want to merge these two together
soil_df <- left_join(
  soil_physico,
  soil_texture,
  by = join_by(Habitat_type, Plot_name, Subplot_name, Soil_depth)
)
soil_df

# A tibble: 144 × 20
   Habitat_type Plot_name Subplot_name Soil_depth Nitrogen Phosphorus Magnesium
   <chr>        <chr>     <chr>        <chr>         <dbl>      <dbl>     <dbl>
 1 Intact       KU1       A            0-15          0.617      0.248     0    
 2 Intact       KU1       A            30-50         0.188      0.129     0.045
 3 Intact       KU1       B            0-15          0.663      0.259     0.054
 4 Intact       KU1       B            30-50         0.2        0.295     0.035
 5 Intact       KU1       C            0-15          0.465      0.172     0.079
 6 Intact       KU1       C            30-50         0.255      0.145     0.043
 7 Intact       KU1       D            0-15          0.285      0.225     0.052
 8 Intact       KU1       D            30-50         0.057      0.207     0.031
 9 Intact       KU2       A            0-15          0.37       0.135     0.038
10 Intact       KU2       A            30-50         0.114      0.168     0.021
# ℹ 134 more rows
# ℹ 13 more variables: Calcium <dbl>, Potassium <dbl>,
#   Exchangable_magnesium <dbl>, Exchangable_calcium <dbl>,
#   Exchangable_potassium <dbl>, Available_phosphorus <dbl>, pH <dbl>,
#   Gravimetric_water_content <dbl>, Organic_matter <dbl>, Clay <dbl>,
#   Silt <dbl>, Sand <dbl>, Texture_classification <chr>
…
brd_mjr <- 
  brd |>
  filter(highway %in% c("motorway", "trunk", "primary", "secondary")) 
brd_mjr

Simple feature collection with 1887 features and 14 fields
Geometry type: LINESTRING
Dimension:     XY
Bounding box:  xmin: 114.1906 ymin: 4.516642 xmax: 115.2021 ymax: 5.037115
Geodetic CRS:  WGS 84
# A tibble: 1,887 × 15
   name     `name:en` highway surface smoothness width lanes oneway bridge layer
 * <chr>    <chr>     <chr>   <chr>   <chr>      <chr> <chr> <chr>  <chr>  <chr>
 1 Lebuhra… Tutong–T… trunk   asphalt <NA>       <NA>  2     yes    <NA>   <NA> 
 2 Lebuhra… Tutong–T… trunk   asphalt <NA>       <NA>  3     yes    <NA>   <NA> 
 3 Jalan S… <NA>      primary asphalt <NA>       <NA>  2     yes    yes    1    
 4 Jalan S… <NA>      primary asphalt <NA>       <NA>  2     yes    <NA>   <NA> 
 5 Lebuh R… Seria–Be… trunk   asphalt <NA>       <NA>  2     yes    <NA>   <NA> 
 6 <NA>     <NA>      trunk   asphalt <NA>       <NA>  2     yes    <NA>   <NA> 
 7 <NA>     <NA>      primary asphalt <NA>       <NA>  1     yes    <NA>   <NA> 
 8 Lebuh R… Seria–Be… trunk   asphalt <NA>       <NA>  2     yes    yes    1    
 9 <NA>     <NA>      primary asphalt <NA>       <NA>  2     yes    <NA>   <NA> 
10 Lebuhra… Telisai–… trunk   asphalt <NA>       <NA>  2     yes    <NA>   <NA> 
# ℹ 1,877 more rows
# ℹ 5 more variables: source <chr>, `name:ms` <chr>, osm_id <int>,
#   osm_type <chr>, geometry <LINESTRING [°]>
…
Simple feature collection with 100 features and 4 fields
Geometry type: LINESTRING
Dimension:     XY
Bounding box:  xmin: 114.1916 ymin: 4.26484 xmax: 114.6695 ymax: 4.69454
Geodetic CRS:  WGS 84
# A tibble: 100 × 5
   src   dst   duration distance                                        geometry
   <chr> <chr>    <dbl>    <dbl>                                <LINESTRING [°]>
 1 1     dst      35.0    38.1   (114.4903 4.65616, 114.4903 4.65616, 114.4902 …
 2 1     dst      17.8    18.8   (114.3396 4.60221, 114.3396 4.60221, 114.3395 …
 3 1     dst       8.10    5.43  (114.226 4.5769, 114.226 4.5769, 114.2265 4.57…
 4 1     dst      20.1    22.9   (114.369 4.60327, 114.3693 4.60334, 114.3695 4…
 5 1     dst       3.15    1.69  (114.2079 4.583, 114.2079 4.583, 114.2078 4.58…
 6 1     dst      11.6     8.65  (114.2707 4.6001, 114.2707 4.60007, 114.2707 4…
 7 1     dst      30.2    36.0   (114.4696 4.6594, 114.4696 4.6594, 114.4698 4.…
 8 1     dst       2.11    0.955 (114.1918 4.5838, 114.1921 4.58362, 114.1922 4…
 9 1     dst       3.49    1.90  (114.2096 4.58314, 114.2096 4.58326, 114.2094 …
10 1     dst       1.52    0.618 (114.2007 4.58641, 114.2007 4.58641, 114.2007 …
# ℹ 90 more rows
…
print(schools_sf)

Simple feature collection with 138 features and 2 fields
Geometry type: POINT
Dimension:     XY
Bounding box:  xmin: 114.7891 ymin: 4.730341 xmax: 115.1303 ymax: 5.036068
Geodetic CRS:  WGS 84
# A tibble: 138 × 3
   osm_id    name                                                 geometry
 * <chr>     <chr>                                             <POINT [°]>
 1 45517438  Sekolah Rendah Haji Tarif                  (114.9321 4.88012)
 2 45768022  Sekolah Menengah Awang Semaun             (114.9389 4.876925)
 3 45820441  Sekolah Rendah Pengiran Anak Puteri Besar (114.9397 4.874045)
 4 45820563  Pehin Dato Jamil Primary School           (114.9473 4.873318)
 5 157197463 Sekolah Ugama Pengiran Muda Abdul Malik … (114.8709 4.848966)
 6 157489516 Sekolah Rendah Dato Marsal                (114.9576 4.961157)
 7 167974917 Chung Hwa Middle School                   (114.9445 4.894822)
 8 167974963 Sekolah Rendah Pusar Ulak                 (114.9358 4.896647)
 9 167974968 St. Andrew’s School                       (114.9372 4.896313)
10 260696860 Jerudong International School             (114.8793 4.969056)
# ℹ 128 more rows
…
